interactions:
- request:
    body: null
    headers:
      Accept:
      - '*/*'
      Accept-Encoding:
      - gzip, deflate, br
      Authorization:
      - Bearer eyJ0eXAiOiJKV1QiLCJhbGciOiJSUzI1NiJ9.eyJ0b2tlbl90eXBlIjoiYWNjZXNzIiwiZXhwIjoxNzAxMjkyMTIzLCJqdGkiOiJhZTQyNGI4NzAwYTg0Njg3YWVjNTEzZjI5MWFjMTU1NCIsInVzZXJfaWQiOiI5YTczMmY0Yi0wNTRmLTRkNDQtYWJiMC1kODQyMTdkY2EzMzMiLCJhdWQiOlsic3F1YXJlbGV0IiwibXVja3JvY2siLCJkb2N1bWVudGNsb3VkIl0sImlzcyI6WyJzcXVhcmVsZXQiXX0.Fd5PFPqGPAoUMpjgXNvwVqR1rKGx_AkjLbztX1DGtbjdiTjg6WF_D-OtETag2Ky_bqTr9TEXJ2lQswUJJ5_YES3accK7P-W4cUAQoQRfdvmavI-U3q-6EJNXNJ9Ej4ZIco5S-n7CoU_oSfVOBm15MuhXw42PsWcvYPV-m_2IiQ4TEiEuaW8niyE4Ogim9DlrAM2DZc-0ZOyXLsRuJKDuGNuLNRSf62Z9ICOK5A9aRFzMnTqN-ON3OxksYbbJ26MKlMEN3zzbst_PnMT5roPZ65qhb2CFCWZvK8v5i2xqLIVI6KHh0TOdSLljlNO4CSRpf3L7NCaO8SEa5oWEnU_KRA
      Connection:
      - keep-alive
      User-Agent:
      - python-requests/2.31.0
    method: GET
    uri: https://api.dev.documentcloud.org/api/projects/200052/documents/?per_page=1&expand=document&version=2.0
  response:
    body:
      string: '{"count":3,"next":"https://api.dev.documentcloud.org/api/projects/200052/documents/?cursor=cD0yMDIzLTExLTI5KzIxJTNBMDYlM0EyNy45NTYzMDQlMkIwMCUzQTAw&expand=document&per_page=1&version=2.0","previous":null,"results":[{"document":{"id":20000206,"access":"private","admin_noindex":false,"asset_url":"https://api.dev.documentcloud.org/files/","canonical_url":"https://www.dev.documentcloud.org/documents/20000206-test","created_at":"2023-11-29T21:06:27.956304Z","data":{},"description":"","edit_access":true,"file_hash":"5dcb718cdd5326ce53ccf8b0d801c0fcaffa1c81","noindex":false,"language":"eng","organization":10002,"original_extension":"pdf","page_count":1,"page_spec":"612.0x792.0:0","presigned_url":"https://documentcloud-dev-sanjin.s3.amazonaws.com/documents/20000206/test.pdf?X-Amz-Algorithm=AWS4-HMAC-SHA256&X-Amz-Credential=AKIA4JBBEJ7K7BVMXVOU%2F20231129%2Fus-east-1%2Fs3%2Faws4_request&X-Amz-Date=20231129T210649Z&X-Amz-Expires=300&X-Amz-SignedHeaders=host&X-Amz-Signature=e694c5fde1a490c6e021dc88a8781bb5651274b1597923fcf5efb695ae98a41c","projects":[200052],"publish_at":null,"published_url":"","related_article":"","revision_control":false,"slug":"test","source":"","status":"success","title":"test","updated_at":"2023-11-29T21:06:49.280877Z","user":100002},"edit_access":true}]}'
    headers:
      Allow:
      - GET, POST, PUT, PATCH, DELETE, HEAD, OPTIONS
      Cache-Control:
      - private, no-cache
      Connection:
      - keep-alive
      Content-Language:
      - en
      Content-Length:
      - '1286'
      Content-Type:
      - application/json
      Cross-Origin-Opener-Policy:
      - same-origin
      Date:
      - Wed, 29 Nov 2023 21:06:49 GMT
      Referrer-Policy:
      - same-origin
      Server:
      - nginx/1.25.2
      Vary:
      - Cookie, Accept, Origin, Accept-Language
      X-Content-Type-Options:
      - nosniff
      X-Frame-Options:
      - DENY
    status:
      code: 200
      message: OK
- request:
    body: null
    headers:
      Accept:
      - '*/*'
      Accept-Encoding:
      - gzip, deflate, br
      Authorization:
      - Bearer eyJ0eXAiOiJKV1QiLCJhbGciOiJSUzI1NiJ9.eyJ0b2tlbl90eXBlIjoiYWNjZXNzIiwiZXhwIjoxNzAxMjkyMTIzLCJqdGkiOiJhZTQyNGI4NzAwYTg0Njg3YWVjNTEzZjI5MWFjMTU1NCIsInVzZXJfaWQiOiI5YTczMmY0Yi0wNTRmLTRkNDQtYWJiMC1kODQyMTdkY2EzMzMiLCJhdWQiOlsic3F1YXJlbGV0IiwibXVja3JvY2siLCJkb2N1bWVudGNsb3VkIl0sImlzcyI6WyJzcXVhcmVsZXQiXX0.Fd5PFPqGPAoUMpjgXNvwVqR1rKGx_AkjLbztX1DGtbjdiTjg6WF_D-OtETag2Ky_bqTr9TEXJ2lQswUJJ5_YES3accK7P-W4cUAQoQRfdvmavI-U3q-6EJNXNJ9Ej4ZIco5S-n7CoU_oSfVOBm15MuhXw42PsWcvYPV-m_2IiQ4TEiEuaW8niyE4Ogim9DlrAM2DZc-0ZOyXLsRuJKDuGNuLNRSf62Z9ICOK5A9aRFzMnTqN-ON3OxksYbbJ26MKlMEN3zzbst_PnMT5roPZ65qhb2CFCWZvK8v5i2xqLIVI6KHh0TOdSLljlNO4CSRpf3L7NCaO8SEa5oWEnU_KRA
      Connection:
      - keep-alive
      User-Agent:
      - python-requests/2.31.0
    method: GET
    uri: https://api.dev.documentcloud.org/api/projects/200052/documents/?cursor=cD0yMDIzLTExLTI5KzIxJTNBMDYlM0EyNy45NTYzMDQlMkIwMCUzQTAw&expand=document&per_page=1&version=2.0
  response:
    body:
      string: '{"count":3,"next":"https://api.dev.documentcloud.org/api/projects/200052/documents/?cursor=cD0yMDIzLTExLTI5KzIxJTNBMDIlM0ExOS45ODk1MTYlMkIwMCUzQTAw&expand=document&per_page=1&version=2.0","previous":"https://api.dev.documentcloud.org/api/projects/200052/documents/?cursor=cj0xJnA9MjAyMy0xMS0yOSsyMSUzQTAyJTNBMTkuOTg5NTE2JTJCMDAlM0EwMA%3D%3D&expand=document&per_page=1&version=2.0","results":[{"document":{"id":20000193,"access":"private","admin_noindex":false,"asset_url":"https://api.dev.documentcloud.org/files/","canonical_url":"https://www.dev.documentcloud.org/documents/20000193-test","created_at":"2023-11-29T21:02:19.989516Z","data":{"_tag":["document"]},"description":"A
        simple test document","edit_access":true,"file_hash":"5dcb718cdd5326ce53ccf8b0d801c0fcaffa1c81","noindex":false,"language":"eng","organization":10002,"original_extension":"pdf","page_count":1,"page_spec":"612.0x792.0:0","presigned_url":"https://documentcloud-dev-sanjin.s3.amazonaws.com/documents/20000193/test.pdf?X-Amz-Algorithm=AWS4-HMAC-SHA256&X-Amz-Credential=AKIA4JBBEJ7K7BVMXVOU%2F20231129%2Fus-east-1%2Fs3%2Faws4_request&X-Amz-Date=20231129T210649Z&X-Amz-Expires=300&X-Amz-SignedHeaders=host&X-Amz-Signature=a56493f609226dce6c302a8c07a816991f6af51db9822efb657781e3a8d6d24d","projects":[200052],"publish_at":null,"published_url":"https://www.example.com/article/test.pdf","related_article":"https://www.example.com/article/","revision_control":false,"slug":"test","source":"MuckRock","status":"success","title":"test","updated_at":"2023-11-29T21:06:49.280877Z","user":100002},"edit_access":true}]}'
    headers:
      Allow:
      - GET, POST, PUT, PATCH, DELETE, HEAD, OPTIONS
      Cache-Control:
      - private, no-cache
      Connection:
      - keep-alive
      Content-Language:
      - en
      Content-Length:
      - '1584'
      Content-Type:
      - application/json
      Cross-Origin-Opener-Policy:
      - same-origin
      Date:
      - Wed, 29 Nov 2023 21:06:49 GMT
      Referrer-Policy:
      - same-origin
      Server:
      - nginx/1.25.2
      Vary:
      - Cookie, Accept, Origin, Accept-Language
      X-Content-Type-Options:
      - nosniff
      X-Frame-Options:
      - DENY
    status:
      code: 200
      message: OK
- request:
    body: null
    headers:
      Accept:
      - '*/*'
      Accept-Encoding:
      - gzip, deflate, br
      Authorization:
      - Bearer eyJ0eXAiOiJKV1QiLCJhbGciOiJSUzI1NiJ9.eyJ0b2tlbl90eXBlIjoiYWNjZXNzIiwiZXhwIjoxNzAxMjkyMTIzLCJqdGkiOiJhZTQyNGI4NzAwYTg0Njg3YWVjNTEzZjI5MWFjMTU1NCIsInVzZXJfaWQiOiI5YTczMmY0Yi0wNTRmLTRkNDQtYWJiMC1kODQyMTdkY2EzMzMiLCJhdWQiOlsic3F1YXJlbGV0IiwibXVja3JvY2siLCJkb2N1bWVudGNsb3VkIl0sImlzcyI6WyJzcXVhcmVsZXQiXX0.Fd5PFPqGPAoUMpjgXNvwVqR1rKGx_AkjLbztX1DGtbjdiTjg6WF_D-OtETag2Ky_bqTr9TEXJ2lQswUJJ5_YES3accK7P-W4cUAQoQRfdvmavI-U3q-6EJNXNJ9Ej4ZIco5S-n7CoU_oSfVOBm15MuhXw42PsWcvYPV-m_2IiQ4TEiEuaW8niyE4Ogim9DlrAM2DZc-0ZOyXLsRuJKDuGNuLNRSf62Z9ICOK5A9aRFzMnTqN-ON3OxksYbbJ26MKlMEN3zzbst_PnMT5roPZ65qhb2CFCWZvK8v5i2xqLIVI6KHh0TOdSLljlNO4CSRpf3L7NCaO8SEa5oWEnU_KRA
      Connection:
      - keep-alive
      User-Agent:
      - python-requests/2.31.0
    method: GET
    uri: https://api.dev.documentcloud.org/api/projects/200052/documents/?cursor=cD0yMDIzLTExLTI5KzIxJTNBMDIlM0ExOS45ODk1MTYlMkIwMCUzQTAw&expand=document&per_page=1&version=2.0
  response:
    body:
      string: '{"count":3,"next":null,"previous":"https://api.dev.documentcloud.org/api/projects/200052/documents/?cursor=cj0xJnA9MjAyMy0xMS0yOSsyMSUzQTAxJTNBNTkuNTQ0MjY3JTJCMDAlM0EwMA%3D%3D&expand=document&per_page=1&version=2.0","results":[{"document":{"id":20000192,"access":"private","admin_noindex":false,"asset_url":"https://api.dev.documentcloud.org/files/","canonical_url":"https://www.dev.documentcloud.org/documents/20000192-test","created_at":"2023-11-29T21:01:59.544267Z","data":{},"description":"","edit_access":true,"file_hash":"5dcb718cdd5326ce53ccf8b0d801c0fcaffa1c81","noindex":false,"language":"eng","organization":10002,"original_extension":"pdf","page_count":1,"page_spec":"612.0x792.0:0","presigned_url":"https://documentcloud-dev-sanjin.s3.amazonaws.com/documents/20000192/test.pdf?X-Amz-Algorithm=AWS4-HMAC-SHA256&X-Amz-Credential=AKIA4JBBEJ7K7BVMXVOU%2F20231129%2Fus-east-1%2Fs3%2Faws4_request&X-Amz-Date=20231129T210650Z&X-Amz-Expires=300&X-Amz-SignedHeaders=host&X-Amz-Signature=e8f60f41ba6633d7fc8ac63429d251a959c78295ce3a716b1a1dc9dd1bb1491a","projects":[200052],"publish_at":null,"published_url":"","related_article":"","revision_control":false,"slug":"test","source":"","status":"success","title":"test","updated_at":"2023-11-29T21:06:49.280877Z","user":100002},"edit_access":true}]}'
    headers:
      Allow:
      - GET, POST, PUT, PATCH, DELETE, HEAD, OPTIONS
      Cache-Control:
      - private, no-cache
      Connection:
      - keep-alive
      Content-Language:
      - en
      Content-Length:
      - '1298'
      Content-Type:
      - application/json
      Cross-Origin-Opener-Policy:
      - same-origin
      Date:
      - Wed, 29 Nov 2023 21:06:50 GMT
      Referrer-Policy:
      - same-origin
      Server:
      - nginx/1.25.2
      Vary:
      - Cookie, Accept, Origin, Accept-Language
      X-Content-Type-Options:
      - nosniff
      X-Frame-Options:
      - DENY
    status:
      code: 200
      message: OK
version: 1
