interactions:
- request:
    body: null
    headers:
      Accept:
      - '*/*'
      Accept-Encoding:
      - gzip, deflate
      Authorization:
      - Bearer eyJ0eXAiOiJKV1QiLCJhbGciOiJSUzI1NiJ9.eyJ0b2tlbl90eXBlIjoiYWNjZXNzIiwiZXhwIjoxNjk4NzY1NTI1LCJqdGkiOiJhMDIwOGQ5OGRiYmY0MjczYWFiN2ZhMjljMjQ4YTM0NCIsInVzZXJfaWQiOiI5YTczMmY0Yi0wNTRmLTRkNDQtYWJiMC1kODQyMTdkY2EzMzMiLCJhdWQiOlsic3F1YXJlbGV0IiwibXVja3JvY2siLCJkb2N1bWVudGNsb3VkIl0sImlzcyI6WyJzcXVhcmVsZXQiXX0.a19HIswrTe12mJjxVf8auDYOyMXJuWzvT3rwz6XZzEU9bPaoaeBxhgW6BDG3cm8gH4jZGSKbaq7ncleTJNzGtKmhr9Wv7-XPBbWgW8UTZCqUzov9Cd-kSXY8dhviqGnq-Vi7O_e6XRvdn8VPVe4_riDNe5uYGvaQs-C_p57yS7bA8MaWsy_CypoarjrhBFG0zefzw4Aj7EClOoIpsA5SgNV6xy4WtPkzfBSB134525KMc7K-XcgtVwG7zW3dIlcbOa1G49e5mtUiTL3JsmQ-DQLk_x74QxmEjzMJMhNDgojyyG4MGSzB2eH6QuztifJnPkrpkGz7Zl0YGEdEOlZcaw
      Connection:
      - keep-alive
      User-Agent:
      - python-requests/2.31.0
    method: GET
    uri: https://api.dev.documentcloud.org/api/documents/search/?q=document%3A20000159+simple&version=2.0
  response:
    body:
      string: '{"count":1,"next":"https://api.dev.documentcloud.org/api/documents/search/?q=document%3A20000159+simple&version=2.0&cursor=AoMIPtQn73q25pLDiwMoMjAwMDAxNTk%3D","previous":null,"results":[{"id":"20000159","user":100002,"organization":10002,"access":"private","status":"success","title":"test","slug":"test","source":"MuckRock","description":"A
        simple test document","language":"eng","created_at":"2023-10-31T15:12:37.226Z","updated_at":"2023-10-31T15:13:52.696Z","page_count":1,"projects":[200042],"original_extension":"pdf","file_hash":"5dcb718cdd5326ce53ccf8b0d801c0fcaffa1c81","related_article":"https://www.example.com/article/","published_url":"https://www.example.com/article/test.pdf","noindex":false,"edit_access":true,"notes":[],"highlights":null,"data":{"_tag":["document"]},"asset_url":"https://api.dev.documentcloud.org/files/","canonical_url":"https://www.dev.documentcloud.org/documents/20000159-test"}],"escaped":false,"debug":{"text_query":"simple","qtime":1,"fq":["!access:invisible","filter(access:public
        AND status:(success readable)) OR (user:100002) OR (access:organization AND
        organization:(10002)) OR (projects_edit_access:(200043 200042))","id:(20000159)"],"sort":"score
        desc, created_at desc, id desc","hl":"off","hl.highlightMultiTerm":"true","rows":25,"cursorMark":"*","qq_user":100002,"notes.qq_user":100002,"qq_organizations":"10002","qq_projects":"200043,200042"}}'
    headers:
      Allow:
      - GET, HEAD, OPTIONS
      Cache-Control:
      - no-cache
      Connection:
      - keep-alive
      Content-Language:
      - en
      Content-Length:
      - '1392'
      Content-Type:
      - application/json
      Cross-Origin-Opener-Policy:
      - same-origin
      Date:
      - Tue, 31 Oct 2023 15:14:27 GMT
      Referrer-Policy:
      - same-origin
      Server:
      - nginx/1.25.2
      Vary:
      - Accept, Origin, Accept-Language, Cookie
      X-Content-Type-Options:
      - nosniff
      X-Frame-Options:
      - DENY
    status:
      code: 200
      message: OK
version: 1
