interactions:
- request:
    body: null
    headers:
      Accept:
      - '*/*'
      Accept-Encoding:
      - gzip, deflate
      Authorization:
      - Bearer eyJ0eXAiOiJKV1QiLCJhbGciOiJSUzI1NiJ9.eyJ0b2tlbl90eXBlIjoiYWNjZXNzIiwiZXhwIjoxNzU4NzMwNDI5LCJpYXQiOjE3NTg3MzAxMjksImp0aSI6IjEyMzE1OGFkOWExYjQ3YTE5ZDdhMjdlYjMwNTdmMzRkIiwidXNlcl9pZCI6ImY2MDI5ZThhLWQ4YTItNDE4OC04YTIxLWNkMDczYTAyZWU1YyIsImF1ZCI6WyJzcXVhcmVsZXQiLCJtdWNrcm9jayIsImRvY3VtZW50Y2xvdWQiXSwiaXNzIjpbInNxdWFyZWxldCJdfQ.LduwXStVTHJGEoNw9eO-xQ0OVLF6b-kaeq-qXOCGJ06mc6JygXWOE7D9NnV7m-PzdtTKCGyQtOCe1RvU51ho5yFNJUwlLcYlmABbOQnvWOuuyqYvzoGXwULm99lV8KWW2Aetmldo_pUU3LY0VJS4Qe13ZaussP1Emsr68_uvy99FU8Xkm_jQqt4qoUDWuj-IeXkVj024Mv70VrCOBiTs_fmRHJixo12aNadUe9D0MhHoJxgBmRiRDqlq0Tu-jjP5I2_wY-c7iVSMUJTFInXHKRJadBaavvllrLZ4t47nc9G-ustuqnT_i8vrkN95LJmL87EK6NoVzS_O84c6DySZDA
      Connection:
      - keep-alive
      User-Agent:
      - python-requests/2.32.5
    method: GET
    uri: https://api.dev.documentcloud.org/api/documents/?per_page=2
  response:
    body:
      string: '{"count":31,"next":"https://api.dev.documentcloud.org/api/documents/?page=2&per_page=2","previous":null,"results":[{"id":20000010,"access":"private","admin_noindex":false,"asset_url":"https://api.dev.documentcloud.org/files/","canonical_url":"https://www.dev.documentcloud.org/documents/20000010-test/","created_at":"2025-09-23T20:03:52.712360Z","data":{},"description":"","edit_access":true,"file_hash":"5dcb718cdd5326ce53ccf8b0d801c0fcaffa1c81","noindex":false,"language":"eng","organization":10000,"original_extension":"pdf","page_count":1,"page_spec":"612.00x792.00:0","projects":[],"publish_at":null,"published_url":"","related_article":"","revision_control":false,"slug":"test","source":"","status":"success","title":"test","updated_at":"2025-09-23T20:03:58.421127Z","user":100000},{"id":20000011,"access":"private","admin_noindex":false,"asset_url":"https://api.dev.documentcloud.org/files/","canonical_url":"https://www.dev.documentcloud.org/documents/20000011-text/","created_at":"2025-09-23T20:03:52.712448Z","data":{},"description":"","edit_access":true,"file_hash":"a718e87a363da29eabc5a847d2c74f76d3e8e89c","noindex":false,"language":"eng","organization":10000,"original_extension":"pdf","page_count":1,"page_spec":"611.97x791.97:0","projects":[],"publish_at":null,"published_url":"","related_article":"","revision_control":false,"slug":"text","source":"","status":"success","title":"text","updated_at":"2025-09-23T20:03:59.506643Z","user":100000}]}'
    headers:
      Allow:
      - GET, POST, PUT, PATCH, DELETE, HEAD, OPTIONS
      Cache-Control:
      - no-cache
      Connection:
      - keep-alive
      Content-Language:
      - en
      Content-Length:
      - '1462'
      Content-Type:
      - application/json
      Cross-Origin-Opener-Policy:
      - same-origin
      Date:
      - Wed, 24 Sep 2025 16:09:14 GMT
      Referrer-Policy:
      - same-origin
      Server:
      - nginx/1.25.2
      Vary:
      - Accept, Origin, Accept-Language, Cookie
      X-Content-Type-Options:
      - nosniff
      X-Frame-Options:
      - DENY
    status:
      code: 200
      message: OK
- request:
    body: null
    headers:
      Accept:
      - '*/*'
      Accept-Encoding:
      - gzip, deflate
      Authorization:
      - Bearer eyJ0eXAiOiJKV1QiLCJhbGciOiJSUzI1NiJ9.eyJ0b2tlbl90eXBlIjoiYWNjZXNzIiwiZXhwIjoxNzU4NzMwNDI5LCJpYXQiOjE3NTg3MzAxMjksImp0aSI6IjEyMzE1OGFkOWExYjQ3YTE5ZDdhMjdlYjMwNTdmMzRkIiwidXNlcl9pZCI6ImY2MDI5ZThhLWQ4YTItNDE4OC04YTIxLWNkMDczYTAyZWU1YyIsImF1ZCI6WyJzcXVhcmVsZXQiLCJtdWNrcm9jayIsImRvY3VtZW50Y2xvdWQiXSwiaXNzIjpbInNxdWFyZWxldCJdfQ.LduwXStVTHJGEoNw9eO-xQ0OVLF6b-kaeq-qXOCGJ06mc6JygXWOE7D9NnV7m-PzdtTKCGyQtOCe1RvU51ho5yFNJUwlLcYlmABbOQnvWOuuyqYvzoGXwULm99lV8KWW2Aetmldo_pUU3LY0VJS4Qe13ZaussP1Emsr68_uvy99FU8Xkm_jQqt4qoUDWuj-IeXkVj024Mv70VrCOBiTs_fmRHJixo12aNadUe9D0MhHoJxgBmRiRDqlq0Tu-jjP5I2_wY-c7iVSMUJTFInXHKRJadBaavvllrLZ4t47nc9G-ustuqnT_i8vrkN95LJmL87EK6NoVzS_O84c6DySZDA
      Connection:
      - keep-alive
      User-Agent:
      - python-requests/2.32.5
    method: GET
    uri: https://api.dev.documentcloud.org/api/documents/?page=2&per_page=2
  response:
    body:
      string: '{"count":31,"next":"https://api.dev.documentcloud.org/api/documents/?page=3&per_page=2","previous":"https://api.dev.documentcloud.org/api/documents/?per_page=2","results":[{"id":20000017,"access":"private","admin_noindex":false,"asset_url":"https://api.dev.documentcloud.org/files/","canonical_url":"https://www.dev.documentcloud.org/documents/20000017-dossier-recu-complet-le-3-mars-2025/","created_at":"2025-09-23T20:05:23.161046Z","data":{},"description":"","edit_access":true,"file_hash":"0c2645e8c409304f4af9d30da322ee32a5a275cc","noindex":false,"language":"eng","organization":10000,"original_extension":"pdf","page_count":13,"page_spec":"595.28x841.89:0-12","projects":[],"publish_at":null,"published_url":"","related_article":"","revision_control":false,"slug":"dossier-recu-complet-le-3-mars-2025","source":"","status":"success","title":"dossier-recu-complet-le-3-mars-2025","updated_at":"2025-09-23T20:05:49.048694Z","user":100000},{"id":20000028,"access":"private","admin_noindex":false,"asset_url":"https://api.dev.documentcloud.org/files/","canonical_url":"https://www.dev.documentcloud.org/documents/20000028-test/","created_at":"2025-09-23T20:07:22.126274Z","data":{},"description":"","edit_access":true,"file_hash":"5dcb718cdd5326ce53ccf8b0d801c0fcaffa1c81","noindex":false,"language":"eng","organization":10000,"original_extension":"pdf","page_count":1,"page_spec":"612.00x792.00:0","projects":[],"publish_at":null,"published_url":"","related_article":"","revision_control":false,"slug":"test","source":"","status":"success","title":"test","updated_at":"2025-09-23T20:07:28.615882Z","user":100000}]}'
    headers:
      Allow:
      - GET, POST, PUT, PATCH, DELETE, HEAD, OPTIONS
      Cache-Control:
      - no-cache
      Connection:
      - keep-alive
      Content-Language:
      - en
      Content-Length:
      - '1616'
      Content-Type:
      - application/json
      Cross-Origin-Opener-Policy:
      - same-origin
      Date:
      - Wed, 24 Sep 2025 16:09:14 GMT
      Referrer-Policy:
      - same-origin
      Server:
      - nginx/1.25.2
      Vary:
      - Accept, Origin, Accept-Language, Cookie
      X-Content-Type-Options:
      - nosniff
      X-Frame-Options:
      - DENY
    status:
      code: 200
      message: OK
version: 1
