interactions:
- request:
    body: null
    headers:
      Accept:
      - '*/*'
      Accept-Encoding:
      - gzip, deflate
      Authorization:
      - Bearer eyJ0eXAiOiJKV1QiLCJhbGciOiJSUzI1NiJ9.eyJ0b2tlbl90eXBlIjoiYWNjZXNzIiwiZXhwIjoxNzU4NzMwNDI5LCJpYXQiOjE3NTg3MzAxMjksImp0aSI6IjEyMzE1OGFkOWExYjQ3YTE5ZDdhMjdlYjMwNTdmMzRkIiwidXNlcl9pZCI6ImY2MDI5ZThhLWQ4YTItNDE4OC04YTIxLWNkMDczYTAyZWU1YyIsImF1ZCI6WyJzcXVhcmVsZXQiLCJtdWNrcm9jayIsImRvY3VtZW50Y2xvdWQiXSwiaXNzIjpbInNxdWFyZWxldCJdfQ.LduwXStVTHJGEoNw9eO-xQ0OVLF6b-kaeq-qXOCGJ06mc6JygXWOE7D9NnV7m-PzdtTKCGyQtOCe1RvU51ho5yFNJUwlLcYlmABbOQnvWOuuyqYvzoGXwULm99lV8KWW2Aetmldo_pUU3LY0VJS4Qe13ZaussP1Emsr68_uvy99FU8Xkm_jQqt4qoUDWuj-IeXkVj024Mv70VrCOBiTs_fmRHJixo12aNadUe9D0MhHoJxgBmRiRDqlq0Tu-jjP5I2_wY-c7iVSMUJTFInXHKRJadBaavvllrLZ4t47nc9G-ustuqnT_i8vrkN95LJmL87EK6NoVzS_O84c6DySZDA
      Connection:
      - keep-alive
      User-Agent:
      - python-requests/2.32.5
    method: GET
    uri: https://api.dev.documentcloud.org/api/documents/
  response:
    body:
      string: '{"count":31,"next":"https://api.dev.documentcloud.org/api/documents/?page=2","previous":null,"results":[{"id":20000010,"access":"private","admin_noindex":false,"asset_url":"https://api.dev.documentcloud.org/files/","canonical_url":"https://www.dev.documentcloud.org/documents/20000010-test/","created_at":"2025-09-23T20:03:52.712360Z","data":{},"description":"","edit_access":true,"file_hash":"5dcb718cdd5326ce53ccf8b0d801c0fcaffa1c81","noindex":false,"language":"eng","organization":10000,"original_extension":"pdf","page_count":1,"page_spec":"612.00x792.00:0","projects":[],"publish_at":null,"published_url":"","related_article":"","revision_control":false,"slug":"test","source":"","status":"success","title":"test","updated_at":"2025-09-23T20:03:58.421127Z","user":100000},{"id":20000011,"access":"private","admin_noindex":false,"asset_url":"https://api.dev.documentcloud.org/files/","canonical_url":"https://www.dev.documentcloud.org/documents/20000011-text/","created_at":"2025-09-23T20:03:52.712448Z","data":{},"description":"","edit_access":true,"file_hash":"a718e87a363da29eabc5a847d2c74f76d3e8e89c","noindex":false,"language":"eng","organization":10000,"original_extension":"pdf","page_count":1,"page_spec":"611.97x791.97:0","projects":[],"publish_at":null,"published_url":"","related_article":"","revision_control":false,"slug":"text","source":"","status":"success","title":"text","updated_at":"2025-09-23T20:03:59.506643Z","user":100000},{"id":20000017,"access":"private","admin_noindex":false,"asset_url":"https://api.dev.documentcloud.org/files/","canonical_url":"https://www.dev.documentcloud.org/documents/20000017-dossier-recu-complet-le-3-mars-2025/","created_at":"2025-09-23T20:05:23.161046Z","data":{},"description":"","edit_access":true,"file_hash":"0c2645e8c409304f4af9d30da322ee32a5a275cc","noindex":false,"language":"eng","organization":10000,"original_extension":"pdf","page_count":13,"page_spec":"595.28x841.89:0-12","projects":[],"publish_at":null,"published_url":"","related_article":"","revision_control":false,"slug":"dossier-recu-complet-le-3-mars-2025","source":"","status":"success","title":"dossier-recu-complet-le-3-mars-2025","updated_at":"2025-09-23T20:05:49.048694Z","user":100000},{"id":20000028,"access":"private","admin_noindex":false,"asset_url":"https://api.dev.documentcloud.org/files/","canonical_url":"https://www.dev.documentcloud.org/documents/20000028-test/","created_at":"2025-09-23T20:07:22.126274Z","data":{},"description":"","edit_access":true,"file_hash":"5dcb718cdd5326ce53ccf8b0d801c0fcaffa1c81","noindex":false,"language":"eng","organization":10000,"original_extension":"pdf","page_count":1,"page_spec":"612.00x792.00:0","projects":[],"publish_at":null,"published_url":"","related_article":"","revision_control":false,"slug":"test","source":"","status":"success","title":"test","updated_at":"2025-09-23T20:07:28.615882Z","user":100000},{"id":20000029,"access":"private","admin_noindex":false,"asset_url":"https://api.dev.documentcloud.org/files/","canonical_url":"https://www.dev.documentcloud.org/documents/20000029-text/","created_at":"2025-09-23T20:07:22.126305Z","data":{},"description":"","edit_access":true,"file_hash":"a718e87a363da29eabc5a847d2c74f76d3e8e89c","noindex":false,"language":"eng","organization":10000,"original_extension":"pdf","page_count":1,"page_spec":"611.97x791.97:0","projects":[],"publish_at":null,"published_url":"","related_article":"","revision_control":false,"slug":"text","source":"","status":"success","title":"text","updated_at":"2025-09-23T20:07:28.307485Z","user":100000},{"id":20000034,"access":"public","admin_noindex":false,"asset_url":"https://documentcloud-dev-sanjin.s3.amazonaws.com/","canonical_url":"https://www.dev.documentcloud.org/documents/20000034-dossier-recu-complet-le-3-mars-2025/","created_at":"2025-09-23T20:11:49.428616Z","data":{},"description":"","edit_access":false,"file_hash":"0c2645e8c409304f4af9d30da322ee32a5a275cc","noindex":false,"language":"eng","organization":10002,"original_extension":"pdf","page_count":13,"page_spec":"595.28x841.89:0-12","projects":[],"publish_at":null,"published_url":"","related_article":"","revision_control":false,"slug":"dossier-recu-complet-le-3-mars-2025","source":"","status":"success","title":"dossier-recu-complet-le-3-mars-2025","updated_at":"2025-09-23T20:14:19.900642Z","user":100001},{"id":20000045,"access":"private","admin_noindex":false,"asset_url":"https://api.dev.documentcloud.org/files/","canonical_url":"https://www.dev.documentcloud.org/documents/20000045-test/","created_at":"2025-09-23T20:13:31.955748Z","data":{},"description":"","edit_access":true,"file_hash":"5dcb718cdd5326ce53ccf8b0d801c0fcaffa1c81","noindex":false,"language":"eng","organization":10000,"original_extension":"pdf","page_count":1,"page_spec":"612.00x792.00:0","projects":[],"publish_at":null,"published_url":"","related_article":"","revision_control":false,"slug":"test","source":"","status":"success","title":"test","updated_at":"2025-09-23T20:13:38.728774Z","user":100000},{"id":20000046,"access":"private","admin_noindex":false,"asset_url":"https://api.dev.documentcloud.org/files/","canonical_url":"https://www.dev.documentcloud.org/documents/20000046-text/","created_at":"2025-09-23T20:13:31.955780Z","data":{},"description":"","edit_access":true,"file_hash":"a718e87a363da29eabc5a847d2c74f76d3e8e89c","noindex":false,"language":"eng","organization":10000,"original_extension":"pdf","page_count":1,"page_spec":"611.97x791.97:0","projects":[],"publish_at":null,"published_url":"","related_article":"","revision_control":false,"slug":"text","source":"","status":"success","title":"text","updated_at":"2025-09-23T20:13:38.309234Z","user":100000},{"id":20000052,"access":"public","admin_noindex":false,"asset_url":"https://documentcloud-dev-sanjin.s3.amazonaws.com/","canonical_url":"https://www.dev.documentcloud.org/documents/20000052-cerfa-14734-04-dortan-signed/","created_at":"2025-09-23T20:14:54.050113Z","data":{},"description":"","edit_access":false,"file_hash":"68008c61169fd94554cbac3e868fb6d957c33f8e","noindex":false,"language":"eng","organization":10002,"original_extension":"pdf","page_count":13,"page_spec":"595.28x841.89:0-12","projects":[],"publish_at":null,"published_url":"","related_article":"","revision_control":false,"slug":"cerfa-14734-04-dortan-signed","source":"","status":"success","title":"cerfa
        14734-04 dortan signed","updated_at":"2025-09-23T20:15:18.102769Z","user":100001},{"id":20000063,"access":"private","admin_noindex":false,"asset_url":"https://api.dev.documentcloud.org/files/","canonical_url":"https://www.dev.documentcloud.org/documents/20000063-test/","created_at":"2025-09-23T20:16:31.439732Z","data":{},"description":"","edit_access":true,"file_hash":"5dcb718cdd5326ce53ccf8b0d801c0fcaffa1c81","noindex":false,"language":"eng","organization":10000,"original_extension":"pdf","page_count":1,"page_spec":"612.00x792.00:0","projects":[],"publish_at":null,"published_url":"","related_article":"","revision_control":false,"slug":"test","source":"","status":"success","title":"test","updated_at":"2025-09-23T20:16:37.611731Z","user":100000},{"id":20000064,"access":"private","admin_noindex":false,"asset_url":"https://api.dev.documentcloud.org/files/","canonical_url":"https://www.dev.documentcloud.org/documents/20000064-text/","created_at":"2025-09-23T20:16:31.439775Z","data":{},"description":"","edit_access":true,"file_hash":"a718e87a363da29eabc5a847d2c74f76d3e8e89c","noindex":false,"language":"eng","organization":10000,"original_extension":"pdf","page_count":1,"page_spec":"611.97x791.97:0","projects":[],"publish_at":null,"published_url":"","related_article":"","revision_control":false,"slug":"text","source":"","status":"success","title":"text","updated_at":"2025-09-23T20:16:37.298379Z","user":100000},{"id":20000076,"access":"private","admin_noindex":false,"asset_url":"https://api.dev.documentcloud.org/files/","canonical_url":"https://www.dev.documentcloud.org/documents/20000076-test/","created_at":"2025-09-23T22:50:54.616236Z","data":{},"description":"","edit_access":true,"file_hash":"5dcb718cdd5326ce53ccf8b0d801c0fcaffa1c81","noindex":false,"language":"eng","organization":10000,"original_extension":"pdf","page_count":1,"page_spec":"612.00x792.00:0","projects":[],"publish_at":null,"published_url":"","related_article":"","revision_control":false,"slug":"test","source":"","status":"success","title":"test","updated_at":"2025-09-23T22:51:46.781874Z","user":100000},{"id":20000077,"access":"private","admin_noindex":false,"asset_url":"https://api.dev.documentcloud.org/files/","canonical_url":"https://www.dev.documentcloud.org/documents/20000077-test/","created_at":"2025-09-23T22:51:48.088605Z","data":{},"description":"","edit_access":true,"file_hash":"5dcb718cdd5326ce53ccf8b0d801c0fcaffa1c81","noindex":false,"language":"eng","organization":10000,"original_extension":"pdf","page_count":1,"page_spec":"612.00x792.00:0","projects":[],"publish_at":null,"published_url":"","related_article":"","revision_control":false,"slug":"test","source":"","status":"success","title":"test","updated_at":"2025-09-23T22:53:39.716202Z","user":100000},{"id":20000078,"access":"private","admin_noindex":false,"asset_url":"https://api.dev.documentcloud.org/files/","canonical_url":"https://www.dev.documentcloud.org/documents/20000078-test/","created_at":"2025-09-23T22:53:40.862933Z","data":{},"description":"","edit_access":true,"file_hash":"a718e87a363da29eabc5a847d2c74f76d3e8e89c","noindex":false,"language":"eng","organization":10000,"original_extension":"pdf","page_count":1,"page_spec":"611.97x791.97:0","projects":[],"publish_at":null,"published_url":"","related_article":"","revision_control":false,"slug":"test","source":"","status":"success","title":"test","updated_at":"2025-09-23T22:55:00.005915Z","user":100000},{"id":20000079,"access":"private","admin_noindex":false,"asset_url":"https://api.dev.documentcloud.org/files/","canonical_url":"https://www.dev.documentcloud.org/documents/20000079-test/","created_at":"2025-09-23T22:55:00.936162Z","data":{},"description":"","edit_access":true,"file_hash":"a718e87a363da29eabc5a847d2c74f76d3e8e89c","noindex":false,"language":"eng","organization":10000,"original_extension":"pdf","page_count":1,"page_spec":"611.97x791.97:0","projects":[],"publish_at":null,"published_url":"","related_article":"","revision_control":false,"slug":"test","source":"","status":"success","title":"test","updated_at":"2025-09-23T22:56:32.611824Z","user":100000},{"id":20000090,"access":"private","admin_noindex":false,"asset_url":"https://api.dev.documentcloud.org/files/","canonical_url":"https://www.dev.documentcloud.org/documents/20000090-test/","created_at":"2025-09-23T23:24:41.476623Z","data":{},"description":"","edit_access":true,"file_hash":"5dcb718cdd5326ce53ccf8b0d801c0fcaffa1c81","noindex":false,"language":"eng","organization":10000,"original_extension":"pdf","page_count":1,"page_spec":"612.00x792.00:0","projects":[],"publish_at":null,"published_url":"","related_article":"","revision_control":false,"slug":"test","source":"","status":"success","title":"test","updated_at":"2025-09-23T23:25:35.735664Z","user":100000},{"id":20000091,"access":"private","admin_noindex":false,"asset_url":"https://api.dev.documentcloud.org/files/","canonical_url":"https://www.dev.documentcloud.org/documents/20000091-text/","created_at":"2025-09-23T23:24:41.476663Z","data":{},"description":"","edit_access":true,"file_hash":"a718e87a363da29eabc5a847d2c74f76d3e8e89c","noindex":false,"language":"eng","organization":10000,"original_extension":"pdf","page_count":1,"page_spec":"611.97x791.97:0","projects":[],"publish_at":null,"published_url":"","related_article":"","revision_control":false,"slug":"text","source":"","status":"success","title":"text","updated_at":"2025-09-23T23:25:49.733428Z","user":100000},{"id":20000107,"access":"private","admin_noindex":false,"asset_url":"https://api.dev.documentcloud.org/files/","canonical_url":"https://www.dev.documentcloud.org/documents/20000107-test/","created_at":"2025-09-24T15:03:00.852905Z","data":{},"description":"","edit_access":true,"file_hash":"5dcb718cdd5326ce53ccf8b0d801c0fcaffa1c81","noindex":false,"language":"eng","organization":10000,"original_extension":"pdf","page_count":1,"page_spec":"612.00x792.00:0","projects":[],"publish_at":null,"published_url":"","related_article":"","revision_control":false,"slug":"test","source":"","status":"success","title":"test","updated_at":"2025-09-24T15:03:07.014325Z","user":100000},{"id":20000108,"access":"private","admin_noindex":false,"asset_url":"https://api.dev.documentcloud.org/files/","canonical_url":"https://www.dev.documentcloud.org/documents/20000108-text/","created_at":"2025-09-24T15:03:00.852944Z","data":{},"description":"","edit_access":true,"file_hash":"a718e87a363da29eabc5a847d2c74f76d3e8e89c","noindex":false,"language":"eng","organization":10000,"original_extension":"pdf","page_count":1,"page_spec":"611.97x791.97:0","projects":[],"publish_at":null,"published_url":"","related_article":"","revision_control":false,"slug":"text","source":"","status":"success","title":"text","updated_at":"2025-09-24T15:03:07.054945Z","user":100000},{"id":20000124,"access":"private","admin_noindex":false,"asset_url":"https://api.dev.documentcloud.org/files/","canonical_url":"https://www.dev.documentcloud.org/documents/20000124-test/","created_at":"2025-09-24T15:11:48.338041Z","data":{},"description":"","edit_access":true,"file_hash":"5dcb718cdd5326ce53ccf8b0d801c0fcaffa1c81","noindex":false,"language":"eng","organization":10000,"original_extension":"pdf","page_count":1,"page_spec":"612.00x792.00:0","projects":[],"publish_at":null,"published_url":"","related_article":"","revision_control":false,"slug":"test","source":"","status":"success","title":"test","updated_at":"2025-09-24T15:11:54.136033Z","user":100000},{"id":20000125,"access":"private","admin_noindex":false,"asset_url":"https://api.dev.documentcloud.org/files/","canonical_url":"https://www.dev.documentcloud.org/documents/20000125-text/","created_at":"2025-09-24T15:11:48.338121Z","data":{},"description":"","edit_access":true,"file_hash":"a718e87a363da29eabc5a847d2c74f76d3e8e89c","noindex":false,"language":"eng","organization":10000,"original_extension":"pdf","page_count":1,"page_spec":"611.97x791.97:0","projects":[],"publish_at":null,"published_url":"","related_article":"","revision_control":false,"slug":"text","source":"","status":"success","title":"text","updated_at":"2025-09-24T15:11:54.167704Z","user":100000},{"id":20000141,"access":"private","admin_noindex":false,"asset_url":"https://api.dev.documentcloud.org/files/","canonical_url":"https://www.dev.documentcloud.org/documents/20000141-test/","created_at":"2025-09-24T15:16:33.299662Z","data":{},"description":"","edit_access":true,"file_hash":"5dcb718cdd5326ce53ccf8b0d801c0fcaffa1c81","noindex":false,"language":"eng","organization":10000,"original_extension":"pdf","page_count":1,"page_spec":"612.00x792.00:0","projects":[],"publish_at":null,"published_url":"","related_article":"","revision_control":false,"slug":"test","source":"","status":"success","title":"test","updated_at":"2025-09-24T15:16:39.650121Z","user":100000},{"id":20000142,"access":"private","admin_noindex":false,"asset_url":"https://api.dev.documentcloud.org/files/","canonical_url":"https://www.dev.documentcloud.org/documents/20000142-text/","created_at":"2025-09-24T15:16:33.299696Z","data":{},"description":"","edit_access":true,"file_hash":"a718e87a363da29eabc5a847d2c74f76d3e8e89c","noindex":false,"language":"eng","organization":10000,"original_extension":"pdf","page_count":1,"page_spec":"611.97x791.97:0","projects":[],"publish_at":null,"published_url":"","related_article":"","revision_control":false,"slug":"text","source":"","status":"success","title":"text","updated_at":"2025-09-24T15:16:39.157575Z","user":100000},{"id":20000158,"access":"private","admin_noindex":false,"asset_url":"https://api.dev.documentcloud.org/files/","canonical_url":"https://www.dev.documentcloud.org/documents/20000158-test/","created_at":"2025-09-24T15:50:20.737003Z","data":{},"description":"","edit_access":true,"file_hash":"5dcb718cdd5326ce53ccf8b0d801c0fcaffa1c81","noindex":false,"language":"eng","organization":10000,"original_extension":"pdf","page_count":1,"page_spec":"612.00x792.00:0","projects":[],"publish_at":null,"published_url":"","related_article":"","revision_control":false,"slug":"test","source":"","status":"success","title":"test","updated_at":"2025-09-24T15:50:26.737759Z","user":100000},{"id":20000159,"access":"private","admin_noindex":false,"asset_url":"https://api.dev.documentcloud.org/files/","canonical_url":"https://www.dev.documentcloud.org/documents/20000159-text/","created_at":"2025-09-24T15:50:20.737036Z","data":{},"description":"","edit_access":true,"file_hash":"a718e87a363da29eabc5a847d2c74f76d3e8e89c","noindex":false,"language":"eng","organization":10000,"original_extension":"pdf","page_count":1,"page_spec":"611.97x791.97:0","projects":[],"publish_at":null,"published_url":"","related_article":"","revision_control":false,"slug":"text","source":"","status":"success","title":"text","updated_at":"2025-09-24T15:50:26.972793Z","user":100000}]}'
    headers:
      Allow:
      - GET, POST, PUT, PATCH, DELETE, HEAD, OPTIONS
      Cache-Control:
      - no-cache
      Connection:
      - keep-alive
      Content-Language:
      - en
      Content-Length:
      - '17220'
      Content-Type:
      - application/json
      Cross-Origin-Opener-Policy:
      - same-origin
      Date:
      - Wed, 24 Sep 2025 16:09:15 GMT
      Referrer-Policy:
      - same-origin
      Server:
      - nginx/1.25.2
      Vary:
      - Accept, Origin, Accept-Language, Cookie
      X-Content-Type-Options:
      - nosniff
      X-Frame-Options:
      - DENY
    status:
      code: 200
      message: OK
- request:
    body: null
    headers:
      Accept:
      - '*/*'
      Accept-Encoding:
      - gzip, deflate
      Authorization:
      - Bearer eyJ0eXAiOiJKV1QiLCJhbGciOiJSUzI1NiJ9.eyJ0b2tlbl90eXBlIjoiYWNjZXNzIiwiZXhwIjoxNzU4NzMwNDI5LCJpYXQiOjE3NTg3MzAxMjksImp0aSI6IjEyMzE1OGFkOWExYjQ3YTE5ZDdhMjdlYjMwNTdmMzRkIiwidXNlcl9pZCI6ImY2MDI5ZThhLWQ4YTItNDE4OC04YTIxLWNkMDczYTAyZWU1YyIsImF1ZCI6WyJzcXVhcmVsZXQiLCJtdWNrcm9jayIsImRvY3VtZW50Y2xvdWQiXSwiaXNzIjpbInNxdWFyZWxldCJdfQ.LduwXStVTHJGEoNw9eO-xQ0OVLF6b-kaeq-qXOCGJ06mc6JygXWOE7D9NnV7m-PzdtTKCGyQtOCe1RvU51ho5yFNJUwlLcYlmABbOQnvWOuuyqYvzoGXwULm99lV8KWW2Aetmldo_pUU3LY0VJS4Qe13ZaussP1Emsr68_uvy99FU8Xkm_jQqt4qoUDWuj-IeXkVj024Mv70VrCOBiTs_fmRHJixo12aNadUe9D0MhHoJxgBmRiRDqlq0Tu-jjP5I2_wY-c7iVSMUJTFInXHKRJadBaavvllrLZ4t47nc9G-ustuqnT_i8vrkN95LJmL87EK6NoVzS_O84c6DySZDA
      Connection:
      - keep-alive
      User-Agent:
      - python-requests/2.32.5
    method: GET
    uri: https://api.dev.documentcloud.org/api/documents/?page=2
  response:
    body:
      string: '{"count":31,"next":null,"previous":"https://api.dev.documentcloud.org/api/documents/","results":[{"id":20000175,"access":"private","admin_noindex":false,"asset_url":"https://api.dev.documentcloud.org/files/","canonical_url":"https://www.dev.documentcloud.org/documents/20000175-test/","created_at":"2025-09-24T16:04:58.966581Z","data":{},"description":"","edit_access":true,"file_hash":"5dcb718cdd5326ce53ccf8b0d801c0fcaffa1c81","noindex":false,"language":"eng","organization":10000,"original_extension":"pdf","page_count":1,"page_spec":"612.00x792.00:0","projects":[],"publish_at":null,"published_url":"","related_article":"","revision_control":false,"slug":"test","source":"","status":"success","title":"test","updated_at":"2025-09-24T16:05:05.605664Z","user":100000},{"id":20000176,"access":"private","admin_noindex":false,"asset_url":"https://api.dev.documentcloud.org/files/","canonical_url":"https://www.dev.documentcloud.org/documents/20000176-text/","created_at":"2025-09-24T16:04:58.966637Z","data":{},"description":"","edit_access":true,"file_hash":"a718e87a363da29eabc5a847d2c74f76d3e8e89c","noindex":false,"language":"eng","organization":10000,"original_extension":"pdf","page_count":1,"page_spec":"611.97x791.97:0","projects":[],"publish_at":null,"published_url":"","related_article":"","revision_control":false,"slug":"text","source":"","status":"success","title":"text","updated_at":"2025-09-24T16:05:05.299525Z","user":100000},{"id":20000192,"access":"private","admin_noindex":false,"asset_url":"https://api.dev.documentcloud.org/files/","canonical_url":"https://www.dev.documentcloud.org/documents/20000192-test/","created_at":"2025-09-24T16:07:32.184295Z","data":{},"description":"","edit_access":true,"file_hash":"5dcb718cdd5326ce53ccf8b0d801c0fcaffa1c81","noindex":false,"language":"eng","organization":10000,"original_extension":"pdf","page_count":1,"page_spec":"612.00x792.00:0","projects":[],"publish_at":null,"published_url":"","related_article":"","revision_control":false,"slug":"test","source":"","status":"success","title":"test","updated_at":"2025-09-24T16:07:38.307434Z","user":100000},{"id":20000193,"access":"private","admin_noindex":false,"asset_url":"https://api.dev.documentcloud.org/files/","canonical_url":"https://www.dev.documentcloud.org/documents/20000193-text/","created_at":"2025-09-24T16:07:32.184330Z","data":{},"description":"","edit_access":true,"file_hash":"a718e87a363da29eabc5a847d2c74f76d3e8e89c","noindex":false,"language":"eng","organization":10000,"original_extension":"pdf","page_count":1,"page_spec":"611.97x791.97:0","projects":[],"publish_at":null,"published_url":"","related_article":"","revision_control":false,"slug":"text","source":"","status":"success","title":"text","updated_at":"2025-09-24T16:07:37.945030Z","user":100000},{"id":20000199,"access":"private","admin_noindex":false,"asset_url":"https://api.dev.documentcloud.org/files/","canonical_url":"https://www.dev.documentcloud.org/documents/20000199-test/","created_at":"2025-09-24T16:08:49.270524Z","data":{},"description":"","edit_access":true,"file_hash":"5dcb718cdd5326ce53ccf8b0d801c0fcaffa1c81","noindex":false,"language":"eng","organization":10000,"original_extension":"pdf","page_count":1,"page_spec":"612.00x792.00:0","projects":[200056],"publish_at":null,"published_url":"","related_article":"","revision_control":false,"slug":"test","source":"","status":"success","title":"test","updated_at":"2025-09-24T16:09:01.334883Z","user":100000},{"id":20000200,"access":"private","admin_noindex":false,"asset_url":"https://api.dev.documentcloud.org/files/","canonical_url":"https://www.dev.documentcloud.org/documents/20000200-test/","created_at":"2025-09-24T16:09:01.460974Z","data":{"_tag":["document"]},"description":"A
        simple test document","edit_access":true,"file_hash":"5dcb718cdd5326ce53ccf8b0d801c0fcaffa1c81","noindex":false,"language":"eng","organization":10000,"original_extension":"pdf","page_count":1,"page_spec":"612.00x792.00:0","projects":[200056],"publish_at":null,"published_url":"https://www.example.com/article/test.pdf","related_article":"https://www.example.com/article/","revision_control":false,"slug":"test","source":"DocumentCloud","status":"success","title":"test","updated_at":"2025-09-24T16:09:12.774106Z","user":100000}]}'
    headers:
      Allow:
      - GET, POST, PUT, PATCH, DELETE, HEAD, OPTIONS
      Cache-Control:
      - no-cache
      Connection:
      - keep-alive
      Content-Language:
      - en
      Content-Length:
      - '4274'
      Content-Type:
      - application/json
      Cross-Origin-Opener-Policy:
      - same-origin
      Date:
      - Wed, 24 Sep 2025 16:09:15 GMT
      Referrer-Policy:
      - same-origin
      Server:
      - nginx/1.25.2
      Vary:
      - Accept, Origin, Accept-Language, Cookie
      X-Content-Type-Options:
      - nosniff
      X-Frame-Options:
      - DENY
    status:
      code: 200
      message: OK
version: 1
